{
  "page": 2,
  "per_page": 3,
  "total": 5,
  "total_pages": 2,
  "data": [
    {
      "name": "Diana Bolt",
      "marathon_name": "Boston Marathon",
      "sex": "F",
      "top_speed": 22.1
    },
    {
      "name": "Eve Slow",
      "marathon_name": "New York Marathon",
      "sex": "F",
      "top_speed": 15.0
    }
  ]
}
